1,21;
2,22;
3,42;
4,44;
5,46;
6,48;
7,50;
8,52;
9,54;
10,56;
11,65;
12,67;
13,69;
14,71;
15,73;
16,75;
17,77;
18,79;
19,81;
20,83;
21,256;
22,258;
23,260;
24,262;
25,264;
26,266;
27,268;
28,270;
29,272;
30,274;
31,329;
32,331;
33,333;
34,335;
35,337;
36,339;
37,341;
38,343;
39,345;
40,167;
41,169;
42,171;
43,173;
44,175;
45,177;
46,225;
47,227;
48,229;
49,231;
50,233;
51,235;
52,237;
53,239;
54,241;
55,242;
56,20;
57,41;
58,43;
59,45;
60,47;
61,49;
62,51;
63,53;
64,55;
65,64;
66,66;
67,68;
68,70;
69,72;
70,74;
71,76;
72,78;
73,80;
74,82;
75,84;
76,257;
77,259;
78,261;
79,263;
80,265;
81,267;
82,269;
83,271;
84,273;
85,275;
86,330;
87,332;
88,334;
89,336;
90,338;
91,340;
92,342;
93,344;
94,166;
95,168;
96,170;
97,172;
98,174;
99,176;
100,224;
101,226;
102,228;
103,230;
104,232;
105,234;
106,236;
107,238;
108,240;
109,243;
110,19;
111,40;
112,39;
113,38;
114,37;
115,36;
116,35;
117,34;
118,33;
119,32;
120,96;
121,97;
122,98;
123,99;
124,100;
125,101;
126,102;
127,103;
128,104;
129,85;
130,288;
131,289;
132,290;
133,291;
134,292;
135,293;
136,294;
137,295;
138,296;
139,276;
140,328;
141,327;
142,326;
143,325;
144,324;
145,323;
146,322;
147,321;
148,320;
149,165;
150,164;
151,163;
152,162;
153,161;
154,160;
155,192;
156,193;
157,194;
158,195;
159,196;
160,197;
161,198;
162,199;
163,200;
164,244;
165,17;
166,15;
167,13;
168,11;
169,9;
170,7;
171,5;
172,3;
173,1;
174,123;
175,121;
176,119;
177,117;
178,115;
179,113;
180,111;
181,109;
182,107;
183,105;
184,86;
185,313;
186,311;
187,309;
188,307;
189,305;
190,303;
191,301;
192,299;
193,297;
194,368;
195,366;
196,364;
197,362;
198,360;
199,358;
200,356;
201,354;
202,352;
203,140;
204,138;
205,136;
206,135;
207,132;
208,130;
209,128;
210,215;
211,213;
212,211;
213,209;
214,207;
215,205;
216,203;
217,201;
218,245;
219,18;
220,16;
221,14;
222,12;
223,10;
224,8;
225,6;
226,4;
227,2;
228,0;
229,122;
230,120;
231,118;
232,116;
233,114;
234,112;
235,110;
236,108;
237,106;
238,87;
239,314;
240,312;
241,310;
242,308;
243,306;
244,304;
245,302;
246,300;
247,298;
248,369;
249,367;
250,365;
251,363;
252,361;
253,359;
254,357;
255,355;
256,353;
257,141;
258,139;
259,137;
260,135;
261,133;
262,131;
263,129;
264,216;
265,214;
266,212;
267,210;
268,208;
269,206;
270,204;
271,202;
272,247;
273,246;
